%YAML 1.1
%TAG !u! tag:unity3d.com,2011:
--- !u!78 &1
TagManager:
  serializedVersion: 2
  tags:
  - Despawn
  - Fish
  - Bubble
  - Boat
  layers:
  - Default
  - TransparentFX
  - Ignore Raycast
  - 
  - Water
  - UI
  - Environment
  - Player
  - Harpoon
  - Fish
  - Bubble
  - DespawnWalls
  - Boat
  - AttackFish
  - 
  - 
  - 
  - 
  - 
  - 
  - 
  - 
  - 
  - 
  - 
  - 
  - 
  - 
  - 
  - 
  - 
  - 
  m_SortingLayers:
  - name: BG
    uniqueID: 4068587975
    locked: 0
  - name: Harpoon
    uniqueID: 2236584485
    locked: 0
  - name: Player
    uniqueID: 1319452327
    locked: 0
  - name: Fish
    uniqueID: 4226026899
    locked: 0
  - name: Default
    uniqueID: 0
    locked: 0
